130,130,130,130,130,130,130,130,130,130
130,130,130,130,130,130,130,130,130,130
130,131,130,130,130,130,130,130,130,130
130,130,130,130,130,130,130,130,130,130
130,130,130,130,130,130,130,130,130,130
130,130,130,130,130,130,130,130,130,130
130,130,130,130,130,130,130,130,130,130
130,130,130,130,130,130,130,130,131,130
130,130,130,130,130,130,130,130,130,130
130,130,130,130,130,130,130,130,130,130
